module 0xacab.org/leap/menshen

go 1.22.2

replace git.autistici.org/ale/lb => 0xacab.org/leap/lb v0.0.0-20210225193050-570f848edccf

require (
	0xacab.org/leap/bitmask-core v0.0.0-20241127074806-6cb14d2eb811
	git.autistici.org/ale/lb v0.0.0-20210301105648-288f2f5853b7
	github.com/go-openapi/errors v0.20.4
	github.com/go-openapi/runtime v0.26.0
	github.com/go-openapi/strfmt v0.21.7
	github.com/go-openapi/swag v0.22.4
	github.com/go-openapi/validate v0.22.1
	github.com/jmoiron/sqlx v1.3.5
	github.com/kellydunn/golang-geo v0.7.0
	github.com/labstack/echo/v4 v4.11.1
	github.com/mattn/go-sqlite3 v1.14.22
	github.com/prometheus/client_golang v1.11.1
	github.com/rs/zerolog v1.33.0
	github.com/spf13/cobra v1.8.1
	github.com/spf13/pflag v1.0.5
	github.com/spf13/viper v1.16.0
	github.com/stretchr/testify v1.8.4
	github.com/swaggo/echo-swagger v1.4.0
	github.com/swaggo/swag v1.16.1
	github.com/tidwall/cities v0.1.0
	github.com/tj/assert v0.0.3
	golang.org/x/crypto v0.25.0
	golang.org/x/exp v0.0.0-20231206192017-f3f8817b8deb
	gonum.org/v1/gonum v0.13.0
	google.golang.org/grpc v1.55.0
	gopkg.in/yaml.v2 v2.4.0
)

require (
	0xacab.org/leap/obfsvpn v0.0.0-20240310002923-fca734212815 // indirect
	filippo.io/edwards25519 v1.0.0 // indirect
	github.com/KyleBanks/depth v1.2.1 // indirect
	github.com/asaskevich/govalidator v0.0.0-20230301143203-a9d515a09cc2 // indirect
	github.com/beorn7/perks v1.0.1 // indirect
	github.com/cespare/xxhash/v2 v2.2.0 // indirect
	github.com/davecgh/go-spew v1.1.2-0.20180830191138-d8f796af33cc // indirect
	github.com/dchest/siphash v1.2.3 // indirect
	github.com/erikstmartin/go-testdb v0.0.0-20160219214506-8d10e4a1bae5 // indirect
	github.com/fsnotify/fsnotify v1.6.0 // indirect
	github.com/go-logr/logr v1.2.3 // indirect
	github.com/go-logr/stdr v1.2.2 // indirect
	github.com/go-openapi/analysis v0.21.4 // indirect
	github.com/go-openapi/jsonpointer v0.19.5 // indirect
	github.com/go-openapi/jsonreference v0.20.0 // indirect
	github.com/go-openapi/loads v0.21.2 // indirect
	github.com/go-openapi/spec v0.20.8 // indirect
	github.com/golang-jwt/jwt v3.2.2+incompatible // indirect
	github.com/golang/protobuf v1.5.3 // indirect
	github.com/hashicorp/hcl v1.0.0 // indirect
	github.com/inconshreveable/mousetrap v1.1.0 // indirect
	github.com/josharian/intern v1.0.0 // indirect
	github.com/klauspost/cpuid/v2 v2.0.6 // indirect
	github.com/klauspost/reedsolomon v1.9.16 // indirect
	github.com/kylelemons/go-gypsy v1.0.0 // indirect
	github.com/labstack/gommon v0.4.0 // indirect
	github.com/lib/pq v1.10.9 // indirect
	github.com/magiconair/properties v1.8.7 // indirect
	github.com/mailru/easyjson v0.7.7 // indirect
	github.com/mattn/go-colorable v0.1.13 // indirect
	github.com/mattn/go-isatty v0.0.20 // indirect
	github.com/matttproud/golang_protobuf_extensions v1.0.1 // indirect
	github.com/mitchellh/mapstructure v1.5.0 // indirect
	github.com/oklog/ulid v1.3.1 // indirect
	github.com/opentracing/opentracing-go v1.2.0 // indirect
	github.com/pelletier/go-toml/v2 v2.0.8 // indirect
	github.com/pkg/errors v0.9.1 // indirect
	github.com/pmezard/go-difflib v1.0.1-0.20181226105442-5d4384ee4fb2 // indirect
	github.com/prometheus/client_model v0.2.0 // indirect
	github.com/prometheus/common v0.26.0 // indirect
	github.com/prometheus/procfs v0.6.0 // indirect
	github.com/spf13/afero v1.9.5 // indirect
	github.com/spf13/cast v1.5.1 // indirect
	github.com/spf13/jwalterweatherman v1.1.0 // indirect
	github.com/subosito/gotenv v1.4.2 // indirect
	github.com/swaggo/files/v2 v2.0.0 // indirect
	github.com/templexxx/cpufeat v0.0.0-20180724012125-cef66df7f161 // indirect
	github.com/templexxx/xor v0.0.0-20191217153810-f85b25db303b // indirect
	github.com/tjfoc/gmsm v1.4.1 // indirect
	github.com/valyala/bytebufferpool v1.0.0 // indirect
	github.com/valyala/fasttemplate v1.2.2 // indirect
	github.com/xtaci/kcp-go v5.4.20+incompatible // indirect
	github.com/ziutek/mymysql v1.5.4 // indirect
	gitlab.com/yawning/edwards25519-extra.git v0.0.0-20220726154925-def713fd18e4 // indirect
	gitlab.com/yawning/obfs4.git v0.0.0-20230723031256-efdc692691f7 // indirect
	gitlab.torproject.org/tpo/anti-censorship/pluggable-transports/goptlib v1.4.0 // indirect
	go.mongodb.org/mongo-driver v1.11.3 // indirect
	go.opentelemetry.io/otel v1.14.0 // indirect
	go.opentelemetry.io/otel/trace v1.14.0 // indirect
	golang.org/x/net v0.27.0 // indirect
	golang.org/x/sys v0.22.0 // indirect
	golang.org/x/text v0.16.0 // indirect
	golang.org/x/time v0.3.0 // indirect
	golang.org/x/tools v0.21.1-0.20240508182429-e35e4ccd0d2d // indirect
	google.golang.org/genproto v0.0.0-20230410155749-daa745c078e1 // indirect
	google.golang.org/protobuf v1.30.0 // indirect
	gopkg.in/ini.v1 v1.67.0 // indirect
	gopkg.in/yaml.v3 v3.0.1 // indirect
)
